@startuml

title __DAO's Class Diagram__\n

  namespace fr.cnam.foad.nfa035.badges.wallet.dao {
    interface fr.cnam.foad.nfa035.badges.wallet.dao.BadgeWalletDAO {
        {abstract} + addBadge()
        {abstract} + getBadge()
    }
  }
  

  namespace fr.cnam.foad.nfa035.badges.wallet.dao {
    interface fr.cnam.foad.nfa035.badges.wallet.dao.DirectAccessBadgeWalletDAO {
        {abstract} + addBadge()
        {abstract} + getBadgeFromMetadata()
        {abstract} + getWalletMetadata()
    }
  }
  



right footer


PlantUML diagram generated by SketchIt! (https://bitbucket.org/pmesmeur/sketch.it)
For more information about this tool, please contact philippe.mesmeur@gmail.com
endfooter

@enduml
